Start_Time,End_Time,Total_RTT,Sent_Time,Recieved_Time,Net_only_RTT
1574719932.471907,1574719932.473146,0.0012390613555908203,1574719932.4721546,1574719932.4730546,0.0009000301361083984
1574719934.4752896,1574719934.4760466,0.0007569789886474609,1574719934.4754865,1574719934.4759488,0.0004622936248779297
1574719936.4782572,1574719936.4790642,0.0008070468902587891,1574719936.478461,1574719936.4789646,0.0005035400390625
1574719938.4796126,1574719938.480338,0.0007255077362060547,1574719938.479821,1574719938.4802601,0.0004391670227050781
1574719940.4824712,1574719940.4833722,0.0009009838104248047,1574719940.4826803,1574719940.483287,0.0006067752838134766
1574719942.4855514,1574719942.486292,0.0007405281066894531,1574719942.4857566,1574719942.4862137,0.0004570484161376953
1574719944.488437,1574719944.489189,0.0007519721984863281,1574719944.48864,1574719944.4890966,0.0004565715789794922
1574719946.489623,1574719946.4905038,0.0008807182312011719,1574719946.4898288,1574719946.4904222,0.0005934238433837891
1574719948.4926758,1574719948.4936361,0.0009603500366210938,1574719948.492963,1574719948.4935527,0.0005896091461181641
1574719950.4957836,1574719950.4963489,0.0005652904510498047,1574719950.4959853,1574719950.496271,0.0002856254577636719
1574719952.4984815,1574719952.4991386,0.0006570816040039062,1574719952.498687,1574719952.4990616,0.0003745555877685547
1574719954.4995525,1574719954.5003047,0.0007522106170654297,1574719954.499746,1574719954.500212,0.0004658699035644531
1574719956.501587,1574719956.5023623,0.0007753372192382812,1574719956.5017836,1574719956.5022833,0.000499725341796875
1574719958.5029426,1574719958.503549,0.000606536865234375,1574719958.5031614,1574719958.5034792,0.0003178119659423828
1574719960.5056028,1574719960.5059266,0.0003237724304199219,1574719960.5057151,1574719960.505896,0.00018095970153808594
1574719962.5062811,1574719962.5067024,0.00042128562927246094,1574719962.5064795,1574719962.50667,0.00019049644470214844
1574719964.508808,1574719964.5092695,0.000461578369140625,1574719964.5090117,1574719964.5092373,0.00022554397583007812
1574719966.5099099,1574719966.5106678,0.0007579326629638672,1574719966.5101242,1574719966.5105748,0.0004506111145019531
1574719968.5127687,1574719968.5133998,0.0006310939788818359,1574719968.5130215,1574719968.5133219,0.00030040740966796875
1574719970.5156019,1574719970.516494,0.0008921623229980469,1574719970.515808,1574719970.5164075,0.0005993843078613281
1574719972.5185962,1574719972.5194192,0.0008230209350585938,1574719972.5188081,1574719972.5193396,0.0005314350128173828
1574719974.5208197,1574719974.5214846,0.0006649494171142578,1574719974.5210311,1574719974.5214057,0.0003745555877685547
1574719976.5229561,1574719976.5237203,0.0007641315460205078,1574719976.5231602,1574719976.5236273,0.00046706199645996094
1574719978.5258589,1574719978.5266604,0.0008015632629394531,1574719978.5260875,1574719978.526559,0.0004715919494628906
1574719980.5288353,1574719980.5296474,0.0008120536804199219,1574719980.5290828,1574719980.5295315,0.0004487037658691406
1574719982.531804,1574719982.5324934,0.0006892681121826172,1574719982.5320075,1574719982.5323987,0.00039124488830566406
1574719984.5328882,1574719984.5333993,0.00051116943359375,1574719984.5329938,1574719984.5333648,0.00037097930908203125
1574719986.5349317,1574719986.535747,0.0008153915405273438,1574719986.535143,1574719986.535664,0.0005211830139160156
1574719988.53645,1574719988.5371852,0.0007352828979492188,1574719988.5366538,1574719988.5371065,0.0004527568817138672
1574719990.5392694,1574719990.5397925,0.0005230903625488281,1574719990.539421,1574719990.5397594,0.0003383159637451172
1574719992.5419047,1574719992.542698,0.0007932186126708984,1574719992.5421083,1574719992.5426185,0.0005102157592773438
1574719994.5429006,1574719994.543727,0.0008263587951660156,1574719994.5430956,1574719994.5436482,0.0005526542663574219
1574719996.5458074,1574719996.5465481,0.0007407665252685547,1574719996.5460176,1574719996.546461,0.00044345855712890625
1574719998.5486813,1574719998.5494392,0.0007579326629638672,1574719998.5488944,1574719998.54936,0.00046563148498535156
1574720000.5495605,1574720000.5503688,0.0008082389831542969,1574720000.5497715,1574720000.5502892,0.0005176067352294922
1574720002.5516932,1574720002.552497,0.0008037090301513672,1574720002.551895,1574720002.5524175,0.000522613525390625
1574720004.5546901,1574720004.555505,0.0008149147033691406,1574720004.554888,1574720004.5554197,0.0005316734313964844
1574720006.557656,1574720006.5584602,0.0008041858673095703,1574720006.5578587,1574720006.5583813,0.000522613525390625
1574720008.5606172,1574720008.561405,0.0007877349853515625,1574720008.560821,1574720008.5613265,0.0005054473876953125
1574720010.5635607,1574720010.5642984,0.0007376670837402344,1574720010.5638063,1574720010.5642123,0.00040602684020996094
1574720012.5662866,1574720012.5669801,0.0006935596466064453,1574720012.5664897,1574720012.5668957,0.00040602684020996094
1574720014.5690575,1574720014.5699136,0.0008561611175537109,1574720014.5692823,1574720014.5698473,0.0005650520324707031
1574720016.570824,1574720016.5715861,0.0007622241973876953,1574720016.571033,1574720016.5714931,0.0004601478576660156
1574720018.573734,1574720018.5745444,0.0008103847503662109,1574720018.5739481,1574720018.5744617,0.0005135536193847656
1574720020.5766985,1574720020.577555,0.0008563995361328125,1574720020.576921,1574720020.57744,0.0005190372467041016
1574720022.5795486,1574720022.5802999,0.0007512569427490234,1574720022.5797498,1574720022.5802207,0.00047087669372558594
1574720024.582443,1574720024.5832705,0.0008275508880615234,1574720024.5826578,1574720024.583178,0.0005202293395996094
1574720026.5853546,1574720026.5861254,0.0007708072662353516,1574720026.5855513,1574720026.5860298,0.00047850608825683594
1574720028.588254,1574720028.5890203,0.0007662773132324219,1574720028.588448,1574720028.5889275,0.0004794597625732422
1574720030.5896287,1574720030.590302,0.0006732940673828125,1574720030.5898428,1574720030.5902133,0.0003705024719238281
1574720032.5924523,1574720032.5931785,0.0007262229919433594,1574720032.5926569,1574720032.593094,0.0004372596740722656
1574720034.5953534,1574720034.596047,0.0006935596466064453,1574720034.5955563,1574720034.5959628,0.00040650367736816406
1574720036.5983863,1574720036.599081,0.0006947517395019531,1574720036.598589,1574720036.5989985,0.0004096031188964844
1574720038.6012561,1574720038.60196,0.0007038116455078125,1574720038.6014607,1574720038.6018758,0.0004150867462158203
1574720040.6043103,1574720040.6050084,0.000698089599609375,1574720040.6045146,1574720040.6049252,0.0004105567932128906
1574720042.6062667,1574720042.6067295,0.0004627704620361328,1574720042.606472,1574720042.6066961,0.00022411346435546875
1574720044.6088033,1574720044.6097336,0.0009303092956542969,1574720044.6090016,1574720044.6096487,0.0006470680236816406
1574720046.611878,1574720046.6126895,0.0008115768432617188,1574720046.6120827,1574720046.6126113,0.0005285739898681641
1574720048.6144269,1574720048.6149914,0.0005645751953125,1574720048.6146326,1574720048.614913,0.0002803802490234375
1574720050.6162848,1574720050.6169894,0.0007045269012451172,1574720050.6165044,1574720050.6169095,0.0004050731658935547
1574720052.619128,1574720052.6201265,0.0009984970092773438,1574720052.6193411,1574720052.6200411,0.0006999969482421875
1574720054.6222672,1574720054.6230874,0.000820159912109375,1574720054.6224658,1574720054.6230083,0.0005424022674560547
1574720056.6251626,1574720056.6256878,0.0005252361297607422,1574720056.6253273,1574720056.6256175,0.00029015541076660156
1574720058.6262724,1574720058.6269488,0.0006763935089111328,1574720058.626407,1574720058.6269023,0.0004954338073730469
1574720060.629022,1574720060.629987,0.000965118408203125,1574720060.6292741,1574720060.6298723,0.0005981922149658203
1574720062.6321404,1574720062.6327162,0.0005757808685302734,1574720062.6323402,1574720062.6326842,0.0003440380096435547
1574720064.632872,1574720064.6335924,0.0007202625274658203,1574720064.633046,1574720064.633526,0.0004801750183105469
1574720066.6357198,1574720066.6365166,0.0007967948913574219,1574720066.635918,1574720066.6364834,0.0005655288696289062
1574720068.637504,1574720068.6382751,0.0007710456848144531,1574720068.6377025,1574720068.638197,0.0004944801330566406
1574720070.640421,1574720070.6412754,0.0008544921875,1574720070.6406243,1574720070.6411874,0.0005631446838378906
1574720072.6429603,1574720072.6437092,0.0007488727569580078,1574720072.6431592,1574720072.6436307,0.0004715919494628906
1574720074.645823,1574720074.646896,0.0010728836059570312,1574720074.6461473,1574720074.6467526,0.0006053447723388672
1574720076.6490562,1574720076.6498766,0.0008203983306884766,1574720076.649265,1574720076.6497834,0.0005183219909667969
1574720078.651968,1574720078.6527367,0.0007686614990234375,1574720078.6521819,1574720078.6526577,0.00047588348388671875
1574720080.6529474,1574720080.653801,0.0008535385131835938,1574720080.653177,1574720080.6536827,0.0005056858062744141
1574720082.655898,1574720082.656634,0.0007359981536865234,1574720082.6561246,1574720082.6565483,0.00042366981506347656
1574720084.6587086,1574720084.6593819,0.0006732940673828125,1574720084.6589043,1574720084.6592977,0.0003933906555175781
1574720086.660589,1574720086.6613634,0.000774383544921875,1574720086.6608012,1574720086.6612728,0.0004715919494628906
1574720088.6629493,1574720088.663517,0.0005676746368408203,1574720088.6631453,1574720088.6634378,0.0002925395965576172
1574720090.6656075,1574720090.6663864,0.0007789134979248047,1574720090.6658509,1574720090.666295,0.00044417381286621094
1574720092.6684787,1574720092.669064,0.0005853176116943359,1574720092.6686676,1574720092.6689992,0.00033164024353027344
1574720094.6695483,1574720094.6701412,0.0005929470062255859,1574720094.6697612,1574720094.670047,0.00028586387634277344
1574720096.6723108,1574720096.6731558,0.0008449554443359375,1574720096.6725152,1574720096.67306,0.0005447864532470703
1574720098.675344,1574720098.676123,0.0007789134979248047,1574720098.6755478,1574720098.6760306,0.00048279762268066406
1574720100.676784,1574720100.6775532,0.0007691383361816406,1574720100.6769934,1574720100.6774747,0.0004813671112060547
1574720102.6797097,1574720102.6804898,0.0007801055908203125,1574720102.679914,1574720102.680397,0.0004830360412597656
1574720104.6825736,1574720104.6834645,0.0008909702301025391,1574720104.682771,1574720104.6833684,0.0005974769592285156
1574720106.685615,1574720106.686388,0.0007729530334472656,1574720106.6858158,1574720106.686308,0.000492095947265625
1574720108.6885204,1574720108.6892557,0.0007352828979492188,1574720108.6887417,1574720108.6891553,0.00041365623474121094
1574720110.689594,1574720110.6903427,0.0007486343383789062,1574720110.689799,1574720110.6902487,0.0004496574401855469
1574720112.6924798,1574720112.693093,0.0006132125854492188,1574720112.6926544,1574720112.6930563,0.0004019737243652344
1574720114.6952028,1574720114.6959002,0.0006973743438720703,1574720114.6954222,1574720114.6958048,0.0003826618194580078
1574720116.696272,1574720116.6969388,0.0006668567657470703,1574720116.6964805,1574720116.6968613,0.0003807544708251953
1574720118.6990712,1574720118.6997824,0.0007112026214599609,1574720118.6992831,1574720118.6997037,0.00042057037353515625
1574720120.7019155,1574720120.7026014,0.0006859302520751953,1574720120.7021143,1574720120.7025244,0.0004100799560546875
1574720122.7047787,1574720122.7055533,0.0007746219635009766,1574720122.7049835,1574720122.70546,0.00047659873962402344
1574720124.707697,1574720124.7084873,0.0007903575897216797,1574720124.707903,1574720124.7084076,0.0005047321319580078
1574720126.7106347,1574720126.7114427,0.0008080005645751953,1574720126.7108393,1574720126.7113647,0.0005254745483398438
1574720128.7136161,1574720128.714432,0.0008158683776855469,1574720128.7138207,1574720128.714353,0.0005323886871337891
1574720130.716577,1574720130.7171898,0.0006127357482910156,1574720130.716778,1574720130.7171123,0.0003342628479003906
1574720132.719323,1574720132.720047,0.0007240772247314453,1574720132.7195454,1574720132.7199683,0.0004229545593261719
1574720134.7221794,1574720134.722963,0.0007836818695068359,1574720134.7223852,1574720134.722882,0.0004968643188476562
1574720136.7250445,1574720136.7258003,0.0007557868957519531,1574720136.7252643,1574720136.7256987,0.0004343986511230469
1574720138.7279537,1574720138.7287278,0.0007741451263427734,1574720138.7281601,1574720138.7286363,0.0004761219024658203
1574720140.7296076,1574720140.7302935,0.0006859302520751953,1574720140.7298133,1574720140.7302394,0.0004260540008544922
1574720142.7323625,1574720142.7331913,0.0008287429809570312,1574720142.7325912,1574720142.7330844,0.0004932880401611328
1574720144.7353394,1574720144.7360735,0.0007340908050537109,1574720144.735543,1574720144.7359943,0.0004513263702392578
1574720146.7362714,1574720146.737111,0.0008397102355957031,1574720146.7364833,1574720146.7370243,0.0005409717559814453
1574720148.7392848,1574720148.7401156,0.0008308887481689453,1574720148.7394876,1574720148.7400372,0.0005495548248291016
1574720150.7422645,1574720150.7431037,0.0008392333984375,1574720150.7424672,1574720150.7430243,0.0005571842193603516
1574720152.7438881,1574720152.7446465,0.0007584095001220703,1574720152.7440991,1574720152.7445688,0.0004696846008300781
1574720154.7468567,1574720154.7477124,0.0008556842803955078,1574720154.7470605,1574720154.7476332,0.0005726814270019531
1574720156.7496166,1574720156.7503731,0.0007565021514892578,1574720156.7498248,1574720156.7502859,0.0004611015319824219
1574720158.7516987,1574720158.7524989,0.0008001327514648438,1574720158.7518985,1574720158.7524014,0.0005028247833251953
1574720160.752886,1574720160.7536645,0.0007784366607666016,1574720160.7530797,1574720160.7535875,0.0005078315734863281
1574720162.7558832,1574720162.756743,0.0008597373962402344,1574720162.756089,1574720162.7566643,0.0005753040313720703
1574720164.7588925,1574720164.7597396,0.0008471012115478516,1574720164.7590969,1574720164.759646,0.0005490779876708984
1574720166.7601411,1574720166.760878,0.0007369518280029297,1574720166.760336,1574720166.760797,0.0004611015319824219
1574720168.7629375,1574720168.763766,0.0008285045623779297,1574720168.763151,1574720168.763687,0.0005359649658203125
1574720170.765903,1574720170.766793,0.0008900165557861328,1574720170.7661033,1574720170.7666802,0.0005769729614257812
1574720172.768894,1574720172.7697806,0.0008866786956787109,1574720172.7691202,1574720172.7696865,0.0005662441253662109
1574720174.7719312,1574720174.7726982,0.0007669925689697266,1574720174.7721357,1574720174.77262,0.00048422813415527344
1574720176.7749321,1574720176.7757123,0.0007801055908203125,1574720176.775138,1574720176.7756152,0.0004773139953613281
1574720178.7779524,1574720178.7787468,0.0007944107055664062,1574720178.7781703,1574720178.7786548,0.000484466552734375
1574720180.7810464,1574720180.7818189,0.0007724761962890625,1574720180.7812517,1574720180.7817268,0.00047516822814941406
1574720182.7829375,1574720182.7837815,0.0008440017700195312,1574720182.7831423,1574720182.7836733,0.0005309581756591797
1574720184.78593,1574720184.7867312,0.0008013248443603516,1574720184.786133,1574720184.7866485,0.0005154609680175781
1574720186.7888696,1574720186.7896934,0.0008237361907958984,1574720186.7890687,1574720186.7896128,0.0005440711975097656
1574720188.7918453,1574720188.7926557,0.0008103847503662109,1574720188.7920523,1574720188.7925713,0.0005190372467041016
1574720190.7948568,1574720190.795711,0.0008542537689208984,1574720190.7950613,1574720190.795631,0.0005695819854736328
1574720192.7961986,1574720192.7969687,0.0007700920104980469,1574720192.7964025,1574720192.7968917,0.0004892349243164062
1574720194.799101,1574720194.799923,0.0008218288421630859,1574720194.7993064,1574720194.7998257,0.0005192756652832031
1574720196.8020234,1574720196.8029249,0.0009014606475830078,1574720196.802258,1574720196.8027856,0.0005276203155517578
1574720198.8050756,1574720198.8058548,0.0007791519165039062,1574720198.8052812,1574720198.8057761,0.0004949569702148438
1574720200.8080323,1574720200.8088186,0.0007863044738769531,1574720200.8082433,1574720200.8087406,0.0004973411560058594
1574720202.8110137,1574720202.811793,0.0007793903350830078,1574720202.811217,1574720202.811714,0.0004968643188476562
1574720204.8140683,1574720204.814883,0.0008146762847900391,1574720204.8142717,1574720204.8147914,0.0005197525024414062
1574720206.8171191,1574720206.81794,0.0008208751678466797,1574720206.817322,1574720206.817846,0.0005240440368652344
1574720208.820086,1574720208.820906,0.0008199214935302734,1574720208.820291,1574720208.8208125,0.0005214214324951172
1574720210.8230214,1574720210.823848,0.0008265972137451172,1574720210.823228,1574720210.8236988,0.00047087669372558594
1574720212.8260078,1574720212.8268702,0.0008623600006103516,1574720212.8262403,1574720212.826786,0.0005457401275634766
1574720214.829009,1574720214.8297694,0.0007603168487548828,1574720214.8292043,1574720214.8296888,0.000484466552734375
1574720216.831942,1574720216.8327503,0.0008082389831542969,1574720216.832147,1574720216.8326592,0.0005123615264892578
1574720218.8329303,1574720218.8337026,0.0007722377777099609,1574720218.8331351,1574720218.8336246,0.0004894733428955078
1574720220.8358703,1574720220.836586,0.0007157325744628906,1574720220.8360922,1574720220.8365061,0.0004138946533203125
1574720222.8385065,1574720222.8390937,0.0005872249603271484,1574720222.8387158,1574720222.8390613,0.00034546852111816406
1574720224.8412786,1574720224.8419845,0.0007059574127197266,1574720224.841482,1574720224.8418975,0.00041556358337402344
1574720226.8441246,1574720226.8447213,0.0005967617034912109,1574720226.844329,1574720226.844691,0.0003619194030761719
1574720228.8458152,1574720228.8466253,0.0008101463317871094,1574720228.8460302,1574720228.8465326,0.0005023479461669922
1574720230.8487754,1574720230.8495715,0.0007960796356201172,1574720230.8489792,1574720230.8494341,0.00045490264892578125
